

================================================================
== Vivado HLS Report for 'cluster16'
================================================================
* Date:           Thu May 17 09:21:15 2018

* Version:        2017.4 (Build 2086221 on Fri Dec 15 21:13:33 MST 2017)
* Project:        cluster16.prj
* Solution:       sol1
* Product family: virtexuplus
* Target device:  xcvu9p-fsgd2104-2-i


================================================================
== Performance Estimates
================================================================
+ Timing (ns): 
    * Summary: 
    +--------+-------+----------+------------+
    |  Clock | Target| Estimated| Uncertainty|
    +--------+-------+----------+------------+
    |ap_clk  |   3.33|      2.43|        0.90|
    +--------+-------+----------+------------+

+ Latency (clock cycles): 
    * Summary: 
    +-----+-----+-----+-----+---------+
    |  Latency  |  Interval | Pipeline|
    | min | max | min | max |   Type  |
    +-----+-----+-----+-----+---------+
    |    ?|    ?|    ?|    ?|   none  |
    +-----+-----+-----+-----+---------+

    + Detail: 
        * Instance: 
        +--------------------------+----------------+-----+-----+-----+-----+----------+
        |                          |                |  Latency  |  Interval | Pipeline |
        |         Instance         |     Module     | min | max | min | max |   Type   |
        +--------------------------+----------------+-----+-----+-----+-----+----------+
        |grp_sha224_cluster_fu_88  |sha224_cluster  |    ?|    ?|    ?|    ?| dataflow |
        +--------------------------+----------------+-----+-----+-----+-----+----------+

        * Loop: 
        N/A



================================================================
== Utilization Estimates
================================================================
* Summary: 
+-----------------+---------+-------+---------+---------+-----+
|       Name      | BRAM_18K| DSP48E|    FF   |   LUT   | URAM|
+-----------------+---------+-------+---------+---------+-----+
|DSP              |        -|      -|        -|        -|    -|
|Expression       |        -|      -|        0|       27|    -|
|FIFO             |        -|      -|        -|        -|    -|
|Instance         |      240|      -|    84230|   176663|    -|
|Memory           |        -|      -|        -|        -|    -|
|Multiplexer      |        -|      -|        -|       69|    -|
|Register         |        -|      -|        8|        -|    -|
+-----------------+---------+-------+---------+---------+-----+
|Total            |      240|      0|    84238|   176759|    0|
+-----------------+---------+-------+---------+---------+-----+
|Available        |     4320|   6840|  2364480|  1182240|  960|
+-----------------+---------+-------+---------+---------+-----+
|Utilization (%)  |        5|      0|        3|       14|    0|
+-----------------+---------+-------+---------+---------+-----+

+ Detail: 
    * Instance: 
    +--------------------------+----------------+---------+-------+-------+--------+
    |         Instance         |     Module     | BRAM_18K| DSP48E|   FF  |   LUT  |
    +--------------------------+----------------+---------+-------+-------+--------+
    |grp_sha224_cluster_fu_88  |sha224_cluster  |      240|      0|  84230|  176663|
    +--------------------------+----------------+---------+-------+-------+--------+
    |Total                     |                |      240|      0|  84230|  176663|
    +--------------------------+----------------+---------+-------+-------+--------+

    * DSP48: 
    N/A

    * Memory: 
    N/A

    * FIFO: 
    N/A

    * Expression: 
    +-------------------+----------+-------+---+----+------------+------------+
    |   Variable Name   | Operation| DSP48E| FF| LUT| Bitwidth P0| Bitwidth P1|
    +-------------------+----------+-------+---+----+------------+------------+
    |ap_ext_blocking_n  |    and   |      0|  0|   9|           1|           2|
    |ap_int_blocking_n  |    and   |      0|  0|   9|           1|           2|
    |ap_str_blocking_n  |    and   |      0|  0|   9|           1|           2|
    +-------------------+----------+-------+---+----+------------+------------+
    |Total              |          |      0|  0|  27|           3|           6|
    +-------------------+----------+-------+---+----+------------+------------+

    * Multiplexer: 
    +-------------------------------------------+----+-----------+-----+-----------+
    |                    Name                   | LUT| Input Size| Bits| Total Bits|
    +-------------------------------------------+----+-----------+-----+-----------+
    |ap_NS_fsm                                  |  15|          3|    1|          3|
    |ap_sync_grp_sha224_cluster_fu_88_ap_ready  |   9|          2|    1|          2|
    |end_hash_strm_V_write                      |   9|          2|    1|          2|
    |end_len_strm_V_read                        |   9|          2|    1|          2|
    |hash_strm_V_V_write                        |   9|          2|    1|          2|
    |len_strm_V_read                            |   9|          2|    1|          2|
    |msg_strm_V_V_read                          |   9|          2|    1|          2|
    +-------------------------------------------+----+-----------+-----+-----------+
    |Total                                      |  69|         15|    7|         15|
    +-------------------------------------------+----+-----------+-----+-----------+

    * Register: 
    +-----------------------------------------------+---+----+-----+-----------+
    |                      Name                     | FF| LUT| Bits| Const Bits|
    +-----------------------------------------------+---+----+-----+-----------+
    |ap_CS_fsm                                      |  2|   0|    2|          0|
    |ap_ext_blocking_n_reg                          |  1|   0|    1|          0|
    |ap_int_blocking_n_reg                          |  1|   0|    1|          0|
    |ap_reg_grp_sha224_cluster_fu_88_ap_start       |  1|   0|    1|          0|
    |ap_rst_reg                                     |  1|   0|    1|          0|
    |ap_str_blocking_n_reg                          |  1|   0|    1|          0|
    |ap_sync_reg_grp_sha224_cluster_fu_88_ap_ready  |  1|   0|    1|          0|
    +-----------------------------------------------+---+----+-----+-----------+
    |Total                                          |  8|   0|    8|          0|
    +-----------------------------------------------+---+----+-----+-----------+



================================================================
== Interface
================================================================
* Summary: 
+------------------------+-----+-----+------------+-----------------+--------------+
|        RTL Ports       | Dir | Bits|  Protocol  |  Source Object  |    C Type    |
+------------------------+-----+-----+------------+-----------------+--------------+
|ap_clk                  |  in |    1| ap_ctrl_hs |    cluster16    | return value |
|ap_rst                  |  in |    1| ap_ctrl_hs |    cluster16    | return value |
|ap_start                |  in |    1| ap_ctrl_hs |    cluster16    | return value |
|ap_done                 | out |    1| ap_ctrl_hs |    cluster16    | return value |
|ap_idle                 | out |    1| ap_ctrl_hs |    cluster16    | return value |
|ap_ready                | out |    1| ap_ctrl_hs |    cluster16    | return value |
|stall_start_ext         | out |    1| ap_ctrl_hs |    cluster16    | return value |
|stall_done_ext          | out |    1| ap_ctrl_hs |    cluster16    | return value |
|stall_start_str         | out |    1| ap_ctrl_hs |    cluster16    | return value |
|stall_done_str          | out |    1| ap_ctrl_hs |    cluster16    | return value |
|stall_start_int         | out |    1| ap_ctrl_hs |    cluster16    | return value |
|stall_done_int          | out |    1| ap_ctrl_hs |    cluster16    | return value |
|msg_strm_V_V_dout       |  in |   64|   ap_fifo  |   msg_strm_V_V  |    pointer   |
|msg_strm_V_V_empty_n    |  in |    1|   ap_fifo  |   msg_strm_V_V  |    pointer   |
|msg_strm_V_V_read       | out |    1|   ap_fifo  |   msg_strm_V_V  |    pointer   |
|len_strm_V_dout         |  in |   64|   ap_fifo  |    len_strm_V   |    pointer   |
|len_strm_V_empty_n      |  in |    1|   ap_fifo  |    len_strm_V   |    pointer   |
|len_strm_V_read         | out |    1|   ap_fifo  |    len_strm_V   |    pointer   |
|end_len_strm_V_dout     |  in |    1|   ap_fifo  |  end_len_strm_V |    pointer   |
|end_len_strm_V_empty_n  |  in |    1|   ap_fifo  |  end_len_strm_V |    pointer   |
|end_len_strm_V_read     | out |    1|   ap_fifo  |  end_len_strm_V |    pointer   |
|hash_strm_V_V_din       | out |  224|   ap_fifo  |  hash_strm_V_V  |    pointer   |
|hash_strm_V_V_full_n    |  in |    1|   ap_fifo  |  hash_strm_V_V  |    pointer   |
|hash_strm_V_V_write     | out |    1|   ap_fifo  |  hash_strm_V_V  |    pointer   |
|end_hash_strm_V_din     | out |    1|   ap_fifo  | end_hash_strm_V |    pointer   |
|end_hash_strm_V_full_n  |  in |    1|   ap_fifo  | end_hash_strm_V |    pointer   |
|end_hash_strm_V_write   | out |    1|   ap_fifo  | end_hash_strm_V |    pointer   |
+------------------------+-----+-----+------------+-----------------+--------------+

